<svg width="205" height="19" viewBox="0 0 205 19" fill="none" xmlns="http://www.w3.org/2000/svg">
<path fill-rule="evenodd" clip-rule="evenodd" d="M89.1874 3.4084C88.8109 3.77905 88.3423 3.96438 87.7816 3.96438C87.2049 3.96438 86.7243 3.77905 86.3398 3.4084C85.9553 3.03774 85.7631 2.56234 85.7631 1.98219C85.7631 1.41815 85.9593 0.946777 86.3518 0.568066C86.7443 0.189355 87.2209 0 87.7816 0C88.3423 0 88.8109 0.189355 89.1874 0.568066C89.5638 0.946777 89.7521 1.41815 89.7521 1.98219C89.7521 2.56234 89.5638 3.03774 89.1874 3.4084ZM49.5979 18.9758C51.28 18.9758 52.6658 18.299 53.7551 16.9453V18.6616H56.8069V0.290076H53.683V7.20356C52.6097 5.8821 51.24 5.22137 49.5739 5.22137C47.7476 5.22137 46.2097 5.8821 44.9601 7.20356C43.7266 8.54114 43.1098 10.1688 43.1098 12.0865C43.1098 14.0365 43.7266 15.6802 44.9601 17.0178C46.1777 18.3232 47.7236 18.9758 49.5979 18.9758ZM3.26808 18.6616V11.3855H10.5732V8.243H3.26808V3.9402H11.6065V0.79771H0V18.6616H3.26808ZM19.5845 18.9758C21.4268 18.9758 22.8726 18.4642 23.9219 17.4408C24.9712 16.4175 25.4958 14.9953 25.4958 13.1743V5.53562H22.3479V13.1743C22.3479 14.0606 22.1036 14.7697 21.615 15.3015C21.1264 15.8333 20.4495 16.0992 19.5845 16.0992C18.7354 16.0992 18.0666 15.8333 17.578 15.3015C17.0893 14.7697 16.845 14.0606 16.845 13.1743V5.53562H13.6971V13.1743C13.6971 14.9953 14.2218 16.4175 15.2711 17.4408C16.3204 18.4642 17.7582 18.9758 19.5845 18.9758ZM31.6235 11.5789V18.6616H28.4996V5.53562H31.5754V7.37277C31.9279 6.69593 32.4645 6.16412 33.1854 5.77735C33.9063 5.39059 34.7394 5.1972 35.6846 5.1972C37.1103 5.1972 38.3199 5.6726 39.3131 6.62341C40.3063 7.57422 40.803 8.91985 40.803 10.6603V18.6616H37.655V11.5305C37.655 10.4508 37.3987 9.60475 36.8861 8.99237C36.3734 8.37998 35.6766 8.07379 34.7955 8.07379C33.8663 8.07379 33.1053 8.40013 32.5126 9.0528C31.9199 9.70547 31.6235 10.5475 31.6235 11.5789ZM47.2911 14.9389C47.9799 15.7125 48.8931 16.0992 50.0305 16.0992C51.1679 16.0992 52.089 15.7125 52.7939 14.9389C53.4988 14.1493 53.8512 13.1985 53.8512 12.0865C53.8512 10.9746 53.4908 10.0318 52.7699 9.25827C52.081 8.48473 51.1679 8.09796 50.0305 8.09796C48.8931 8.09796 47.9799 8.48473 47.2911 9.25827C46.5862 10.0479 46.2337 10.9907 46.2337 12.0865C46.2337 13.1985 46.5862 14.1493 47.2911 14.9389ZM63.1268 18.6616V12.2557C63.1268 10.9343 63.4232 9.93109 64.0159 9.24618C64.6087 8.56128 65.4097 8.21883 66.4189 8.21883C66.8675 8.21883 67.3721 8.30746 67.9328 8.48473L68.1972 5.4631C67.7005 5.28584 67.1799 5.1972 66.6352 5.1972C65.0172 5.1972 63.8077 5.91433 63.0067 7.3486V5.53562H60.0029V18.6616H63.1268ZM79.9478 17.042C78.8104 18.3312 77.3926 18.9758 75.6945 18.9758C73.8202 18.9758 72.2743 18.3151 71.0567 16.9936C69.8392 15.6722 69.2305 14.0204 69.2305 12.0382C69.2305 10.056 69.8392 8.42833 71.0567 7.15522C72.2903 5.86599 73.8362 5.22137 75.6945 5.22137C77.3606 5.22137 78.7784 5.8821 79.9478 7.20356V5.53562H82.9276V18.6616H79.9478V17.042ZM76.1751 16.0992C75.0537 16.0992 74.1326 15.7125 73.4117 14.9389C72.7068 14.1493 72.3544 13.1985 72.3544 12.0865C72.3544 10.9907 72.7068 10.0479 73.4117 9.25827C74.1326 8.48473 75.0537 8.09796 76.1751 8.09796C77.2965 8.09796 78.2177 8.48473 78.9386 9.25827C79.6595 10.0318 80.0199 10.9746 80.0199 12.0865C80.0199 13.2146 79.6595 14.1654 78.9386 14.9389C78.2177 15.7125 77.2965 16.0992 76.1751 16.0992ZM89.3195 18.6616V5.53562H86.1716V18.6616H89.3195ZM100.325 17.8155C99.3961 18.6052 98.1706 19 96.6487 19C94.3899 19 92.6357 18.1298 91.3861 16.3893L93.1643 14.4555C93.5969 15.0356 94.1295 15.4909 94.7623 15.8212C95.3951 16.1516 96.0319 16.3168 96.6727 16.3168C97.2334 16.3168 97.694 16.1838 98.0545 15.9179C98.4149 15.652 98.5951 15.3257 98.5951 14.9389C98.5951 14.4232 98.2667 14.0042 97.6099 13.6819C97.4016 13.553 96.873 13.3355 96.0239 13.0293C95.271 12.7392 94.7183 12.5055 94.3658 12.3282C92.908 11.6031 92.1791 10.4911 92.1791 8.99237C92.1791 7.84818 92.6117 6.91349 93.4767 6.18829C94.3418 5.4631 95.4872 5.10051 96.913 5.10051C98.7553 5.10051 100.245 5.74512 101.383 7.03435L99.7486 9.04071C98.8995 8.13825 97.9223 7.68702 96.8169 7.68702C96.3363 7.68702 95.9518 7.80386 95.6635 8.03753C95.3751 8.2712 95.2309 8.56531 95.2309 8.91985C95.2309 9.5 95.6074 9.92706 96.3603 10.201C98.2667 10.9584 99.316 11.3936 99.5083 11.5064C100.982 12.3121 101.719 13.4241 101.719 14.8422C101.719 16.0348 101.254 17.0259 100.325 17.8155ZM110.49 18.9517C112.653 18.9517 114.543 18.3473 116.161 17.1387L114.911 14.8906C113.63 15.793 112.196 16.2443 110.61 16.2443C109.521 16.2443 108.636 15.9743 107.955 15.4345C107.274 14.8946 106.829 14.1573 106.621 13.2226H116.57C116.634 12.707 116.666 12.2396 116.666 11.8206C116.666 9.79008 116.057 8.1866 114.839 7.01018C113.622 5.81764 112.076 5.22137 110.202 5.22137C108.199 5.22137 106.565 5.87405 105.299 7.17939C104.05 8.4525 103.425 10.0882 103.425 12.0865C103.425 12.989 103.565 13.8391 103.846 14.6368C104.126 15.4345 104.547 16.1597 105.107 16.8123C105.668 17.465 106.409 17.9847 107.33 18.3715C108.251 18.7583 109.304 18.9517 110.49 18.9517ZM106.621 10.8295H113.59C113.462 9.91094 113.089 9.18575 112.472 8.65394C111.856 8.12214 111.099 7.85623 110.202 7.85623C109.288 7.85623 108.516 8.12214 107.883 8.65394C107.25 9.18575 106.829 9.91094 106.621 10.8295ZM133.655 18.9275C136.795 18.9275 139.494 17.7269 141.753 15.3257V8.09796H133.583V10.9987H138.725V13.7061C138.132 14.3346 137.392 14.8342 136.502 15.2048C135.613 15.5755 134.696 15.7608 133.751 15.7608C132.037 15.7608 130.611 15.1807 129.474 14.0204C128.352 12.8762 127.792 11.4419 127.792 9.71756C127.792 7.9771 128.36 6.53477 129.498 5.39058C130.667 4.2464 132.101 3.6743 133.799 3.6743C135.786 3.6743 137.46 4.38338 138.821 5.80153L141.008 3.48092C140.191 2.57846 139.138 1.85327 137.848 1.30534C136.559 0.757422 135.209 0.483461 133.799 0.483461C131.172 0.483461 128.953 1.35369 127.143 3.09415C125.333 4.83461 124.427 7.05047 124.427 9.74173C124.427 12.4008 125.292 14.6005 127.023 16.341C128.785 18.0653 130.996 18.9275 133.655 18.9275ZM156.531 17.1387C154.913 18.3473 153.023 18.9517 150.86 18.9517C149.675 18.9517 148.622 18.7583 147.7 18.3715C146.779 17.9847 146.038 17.465 145.478 16.8123C144.917 16.1597 144.496 15.4345 144.216 14.6368C143.936 13.8391 143.796 12.989 143.796 12.0865C143.796 10.0882 144.42 8.4525 145.67 7.17939C146.935 5.87405 148.57 5.22137 150.572 5.22137C152.446 5.22137 153.992 5.81764 155.21 7.01018C156.427 8.1866 157.036 9.79008 157.036 11.8206C157.036 12.2396 157.004 12.707 156.94 13.2226H146.992C147.2 14.1573 147.644 14.8946 148.325 15.4345C149.006 15.9743 149.891 16.2443 150.981 16.2443C152.567 16.2443 154 15.793 155.282 14.8906L156.531 17.1387ZM153.96 10.8295H146.992C147.2 9.91094 147.62 9.18575 148.253 8.65394C148.886 8.12214 149.659 7.85623 150.572 7.85623C151.469 7.85623 152.226 8.12214 152.843 8.65394C153.46 9.18575 153.832 9.91094 153.96 10.8295ZM162.587 11.5789V18.6616H159.463V5.53562H162.539V7.37277C162.891 6.69593 163.428 6.16412 164.149 5.77735C164.87 5.39059 165.703 5.1972 166.648 5.1972C168.074 5.1972 169.283 5.6726 170.277 6.62341C171.27 7.57422 171.766 8.91985 171.766 10.6603V18.6616H168.619V11.5305C168.619 10.4508 168.362 9.60475 167.85 8.99237C167.337 8.37998 166.64 8.07379 165.759 8.07379C164.83 8.07379 164.069 8.40013 163.476 9.0528C162.883 9.70547 162.587 10.5475 162.587 11.5789ZM176.428 3.96438C176.989 3.96438 177.458 3.77905 177.834 3.4084C178.211 3.03774 178.399 2.56234 178.399 1.98219C178.399 1.41815 178.211 0.946777 177.834 0.568066C177.458 0.189355 176.989 0 176.428 0C175.868 0 175.391 0.189355 174.999 0.568066C174.606 0.946777 174.41 1.41815 174.41 1.98219C174.41 2.56234 174.602 3.03774 174.987 3.4084C175.371 3.77905 175.852 3.96438 176.428 3.96438ZM177.966 5.53562V18.6616H174.818V5.53562H177.966ZM186.809 18.9758C188.652 18.9758 190.097 18.4642 191.147 17.4408C192.196 16.4175 192.721 14.9953 192.721 13.1743V5.53562H189.573V13.1743C189.573 14.0606 189.328 14.7697 188.84 15.3015C188.351 15.8333 187.674 16.0992 186.809 16.0992C185.96 16.0992 185.291 15.8333 184.803 15.3015C184.314 14.7697 184.07 14.0606 184.07 13.1743V5.53562H180.922V13.1743C180.922 14.9953 181.447 16.4175 182.496 17.4408C183.545 18.4642 184.983 18.9758 186.809 18.9758ZM203.606 17.8155C202.677 18.6052 201.452 19 199.93 19C197.671 19 195.917 18.1298 194.667 16.3893L196.445 14.4555C196.878 15.0356 197.411 15.4909 198.043 15.8212C198.676 16.1516 199.313 16.3168 199.954 16.3168C200.514 16.3168 200.975 16.1838 201.335 15.9179C201.696 15.652 201.876 15.3257 201.876 14.9389C201.876 14.4232 201.548 14.0042 200.891 13.6819C200.683 13.553 200.154 13.3355 199.305 13.0293C198.552 12.7392 197.999 12.5055 197.647 12.3282C196.189 11.6031 195.46 10.4911 195.46 8.99237C195.46 7.84818 195.893 6.91349 196.758 6.18829C197.623 5.4631 198.768 5.10051 200.194 5.10051C202.036 5.10051 203.526 5.74512 204.664 7.03435L203.03 9.04071C202.18 8.13825 201.203 7.68702 200.098 7.68702C199.617 7.68702 199.233 7.80386 198.944 8.03753C198.656 8.2712 198.512 8.56531 198.512 8.91985C198.512 9.5 198.888 9.92706 199.641 10.201C201.548 10.9584 202.597 11.3936 202.789 11.5064C204.263 12.3121 205 13.4241 205 14.8422C205 16.0348 204.535 17.0259 203.606 17.8155Z" fill="#2A2B2C"/>
</svg>
